…
library(pdftools)
book <- pdf_text("frankenstein.pdf")

pdf_text converts the pdf file into a character string where each element is a page from the document.

Now that we have defined the book as a character string we will begin to mold it into a data frame so it is easier to work with.

book_df <- book  %>% 
  as_tibble_col("content") %>%
  rowid_to_column("page_number")

book_df

## # A tibble: 277 x 2
##    page_number content                                                          
##          <int> <chr>                                                            
##  1           1 "Frankenstein\nBy Mary Wollstonecraft Shelley\nDownload free eBo…
##  2           2 "Letter 1\nTo Mrs. Saville, England\n   St. Petersburgh, Dec. 11…
##  3           3 "and features may be without example, as the phenomena of\nthe h…
##  4           4 "North Pacific Ocean through the seas which surround the\npole. …
##  5           5 "practical advantage. Twice I actually hired myself as an un-\nd…
##  6           6 "easily be done by paying the insurance for the owner, and\nto e…
##  7           7 "Letter 2\nTo Mrs. Saville, England\n   Archangel, 28th March, 1…
##  8           8 "to me that I am self-educated: for the first fourteen years\nof…
##  9           9 "remarkable in the ship for his gentleness and the mildness of\n…
## 10          10 "himself bound in honour to my friend, who, when he found\nthe f…
## # … with 267 more rows
…
| is used as an or statement to detect multiple patterns

Now our strings contain only the most relevant information, but they are still dense and difficult to decipher insight from.

The next step is to use the tidytext package to further break up the data. Using the unnest_token function it is possible to breakdown character strings into lines, paragraphs, sentences, words, and n-grams. First we will update the data frame by breaking the strings down by line.

library(tidytext)

book_df <- book_df %>%
  unnest_tokens("lines", content, token = "lines", to_lower = F)

book_df

## # A tibble: 7,578 x 2
##    page_number lines                                                         
##          <int> <chr>                                                         
##  1           1 "Frankenstein"                                                
##  2           1 "By Mary Wollstonecraft Shelley"                              
##  3           1 "Download free eBooks of classic literature, books and"       
##  4           1 "novels at Planet eBook. Subscribe to our free eBooks blog"   
##  5           1 "and email newsletter."                                       
##  6           2 "Letter 1"                                                    
##  7           2 "To Mrs. Saville, England"                                    
##  8           2 "   St. Petersburgh, Dec. 11th, 17—"                          
##  9           2 "   You will rejoice to hear that no disaster has accompanied"
## 10           2 "the commencement of an enterprise which you have regard-"    
## # … with 7,568 more rows
…
What began as a pdf of unstructured text is now a structured data frame with clear variables and observations. Going forward this will be much easier to work with.

Text Analysis

Counts

Now that we have a structured data frame, lets look for the most common words that appear within the text.

book_words <- book_df %>%
  unnest_tokens(word, lines, token = "words") 

book_words %>%
  count(word, sort = T)

## # A tibble: 7,895 x 2
##    word      n
##    <chr> <int>
##  1 the    4192
##  2 and    2977
##  3 i      2851
##  4 of     2649
##  5 to     2108
##  6 my     1780
##  7 a      1392
##  8 in     1155
##  9 was    1021
## 10 that   1017
## # … with 7,885 more rows

The most common words are unsurprisingly the filler words found in any text. To sort these words out we will use the stop_words data frame, which is a list of these common words.

book_words <- book_words %>%
  anti_join(stop_words) 

## Joining, by = "word"

book_words %>%
  count(word, sort = T)

## # A tibble: 7,396 x 2
##    word          n
##    <chr>     <int>
##  1 life        116
##  2 father      111
##  3 eyes        104
##  4 time         99
##  5 night        92
##  6 found        87
##  7 mind         84
##  8 day          82
##  9 elizabeth    82
## 10 heart        81
## # … with 7,386 more rows
…
It is also useful to count combinations of words. tidytext gives this option using ngrams.

book_df %>%
  unnest_tokens(bigram, lines, token = "ngrams", n = 2) %>%
  count(bigram, sort= T) # again the most common word pairings belong to the stop_words subset, we can still filter these out though

## # A tibble: 39,255 x 2
##    bigram      n
##    <chr>   <int>
##  1 of the    491
##  2 of my     254
##  3 in the    250
##  4 i was     219
##  5 i had     210
##  6 that i    194
##  7 and i     190
##  8 to the    180
##  9 and the   179
## 10 on the    144
## # … with 39,245 more rows
…
bigrams_sep <- bigrams %>%
  separate(bigram, c("word1", "word2"), sep = " ")

bigrams_filter <- bigrams_sep %>%
  filter(!word1 %in% stop_words$word) %>%
  filter(!word2 %in% stop_words$word)

bigrams_count <- bigrams_filter %>%
  count(word1, word2, sort = T) %>% 
  na.omit()

bigrams_count

## # A tibble: 4,813 x 3
##    word1   word2          n
##    <chr>   <chr>      <int>
##  1 native  country       12
##  2 fellow  creatures     11
##  3 natural philosophy    10
##  4 dear    victor         9
##  5 de      lacey          8
##  6 mont    blanc          7
##  7 poor    girl           7
##  8 poor    william        6
##  9 gentle  manners        5
## 10 native  town           5
## # … with 4,803 more rows
…
